459153 214156
552814 148601
70737 153123
764356 362518
113273 650445
218889 503382
928951 389119
898711 614588
862073 722298
49200 257633
816270 866226
256867 737454
35290 504047
190110 546847
113638 628680
809 169070
9923 373034
258426 83337
406060 274382
433632 424640
758063 711098
55291 752982
364675 577438
392553 196320
355394 276426
838969 906192
616555 642877
670303 424704
493991 64081
592012 85263
605364 362448
475276 822150
725737 869364
338268 680633
478114 38425
426876 683946
811310 811676
224792 596666
127895 933845
303496 141256
509209 555605
315971 306738
468423 119464
345412 679546
570253 975245
404748 849104
515305 279760
518604 573482
177661 89744
876538 969076
904829 358223
828928 468428
114670 297457
560931 70904
760289 785101
751882 664707
555224 707423
466034 345957
308447 480546
90917 665752
118585 147363
467520 673202
90669 265920
113567 908627
841608 234515
853122 553587
431346 357178
257523 694466
443107 23483
198446 748500
310930 720744
730469 207015
171392 91838
238617 358689
904503 543088
527232 467475
529333 717647
664757 505278
334273 264234
207495 972227
862203 240845
767081 860052
405881 538945
624977 265130
222797 634434
798247 677594
73260 844160
841406 750723
335588 706854
705915 162938
505355 570038
449745 259771
720837 321375
193103 268564
59780 920853
699706 349487
212303 536974
184758 585722
158297 254430
531543 657147
431226 984103
137629 754540
135471 149320
693261 823691
740163 47173
351570 878184
376350 867802
476685 107059
488563 29505
993602 261666
361075 407818
965650 617790
444726 262514
4247 31964
632111 544550
416285 963458
667358 430090
264280 584362
219678 37799
731047 872789
195325 182694
160274 974798
381494 791252
829311 309906
578023 715997
668611 500277
949437 800563
561572 129593
29974 887787
818718 346893
12209 153390
113338 2223
220973 993750
283105 674026
442694 631994
649373 642508
544305 860520
631712 849003
854623 392615
886927 871427
736001 997775
591411 664965
305588 669652
994374 78670
27977 163785
601485 151102
208883 59749
2711 765133
573892 795920
576810 776620
198034 928785
659173 56045
965332 550397
849634 76622
707039 616305
881977 303775
47952 455498
515105 807986
922516 248807
970434 241125
555014 470214
243517 756513
531666 561470
553222 232982
982441 720503
857199 419813
452579 27134
768373 899127
903302 955149
42729 446942
130165 438773
497038 986933
411732 264763
235258 968053
127856 157550
517777 262719
828106 88948
887605 805156
987451 664975
549398 457932
867773 192069
704665 398220
531351 652717
86600 346652
70156 610018
993542 740141
662506 444151
771705 45978
103702 523302
849324 869664
376334 734811
628990 788119
27632 330109
946505 215820
86760 699999
612115 701748
532843 352246
785348 292472
502312 708836
883003 696594
942639 309798
537054 762530
101525 55958
541994 138996
316868 195924
180943 481909
499829 951396
886124 983634
472037 986537
842153 392979
364966 259413
422563 907251
550136 617931
624182 461044
587892 934206
863151 882012
947242 470012
435274 313036
481454 982187
381168 631812
580790 784463
227465 627528
351550 250747
312663 392834
757394 641426
653851 549804
613968 698197
310083 482033
511510 609052
990201 878631
139312 347524
107566 93233
632789 185413
106327 870172
938476 539146
434962 951587
524750 614786
592451 380974
378396 867646
213846 233164
2440 949023
260290 51707
858145 431459
39985 933890
134924 358070
892481 354223
334487 375086
930254 294945
491844 42609
11785 554625
428080 187442
772821 839265
780865 66285
790812 422950
365973 835223
170866 650984
916479 326062
903941 383477
518144 540150
902033 708368
359363 273905
317044 586116
89218 600284
964633 744002
517373 443525
998880 576885
88172 293221
938621 568071
845378 141406
742688 129689
349843 949810
526025 893109
519691 15697
939728 460023
731315 52001
65781 502369
152943 192497
546369 8746
421593 391645
683808 914459
497785 59789
276722 5811
58693 89027
253073 938466
916403 537485
430839 499490
674448 233279
737282 977387
186709 831627
904181 357337
946551 225583
46750 630131
414326 241462
994458 873647
505052 779408
992925 525098
996499 557288
296364 823998
630700 432524
916695 172890
